\relax 
\@writefile{lof}{\contentsline {figure}{\numberline {1}{\ignorespaces Tu bym da\IeC {\l } obrazek do punktu 1}}{1}}
\@writefile{lof}{\contentsline {figure}{\numberline {2}{\ignorespaces tu obrazek do punktu 2}}{2}}
\@writefile{lof}{\contentsline {figure}{\numberline {3}{\ignorespaces tu obrazek do punktu 3}}{2}}
\@writefile{lof}{\contentsline {figure}{\numberline {4}{\ignorespaces obrazek do punktu 4}}{2}}
\@writefile{lof}{\contentsline {figure}{\numberline {5}{\ignorespaces obrazek do punktu 5}}{3}}
\@writefile{lof}{\contentsline {figure}{\numberline {6}{\ignorespaces obrazek do punktu 6, jakies gwiazdki czy co\IeC {\'s}, przyznawanie achievement\IeC {\'o}w (odznaki i trofea)}}{3}}
